{
    "config": "royale",
    "compilerOptions": {
        "source-map": true,
        "targets": [
            "JSRoyale"
        ],
        "theme": "${royalelib}/themes/JewelTheme/src/main/resources/defaults.css"
    },
    "additionalOptions": "-remove-circulars -js-output-optimization=skipAsCoercions",
    "files": [
        "src/main/mainRoyale.mxml"
    ]
}